CREMI - Bât. A28 Salle 005
CREMI - Bât. A28 Salle 007
CREMI - Bât. A28 Salle 008
CREMI - Bât. A28 Salle 009
CREMI - Bât. A28 Salle 101
CREMI - Bât. A28 Salle 102
CREMI - Bât. A28 Salle 103
CREMI - Bât. A28 Salle 104
CREMI - Bât. A28 Salle 105
CREMI - Bât. A28 Salle 201
CREMI - Bât. A28 Salle 202
CREMI - Bât. A28 Salle 203
CREMI - Bât. A28 Salle 204
CREMI - Bât. A28 Salle 205
CREMI - Bât. A28 Salle 206
CREMI - Bât. A28 Salle 207
CREMI - Bât. A28 Salle 208