A29/ Amphithéâtre A
A29/ Amphithéâtre B
A29/ Amphithéâtre C
A29/ Amphithéâtre D
A29/ Amphithéâtre E
A29/ Amphithéâtre F
A29/ Amphithéâtre G
A29/ Salle 001
A29/ Salle 101
A29/ Salle 102
A29/ Salle 103
A29/ Salle 104
A29/ Salle 105
A29/ Salle 106
A29/ Salle 107